Unnamed: 0,País,Población (2021),Región
,Antigua y Barbuda,98 728,Antillas
,Argentina,45 808 747,Sudamérica
,Bahamas,396 914,Antillas
,Barbados,287 708,Antillas
,Belice,430 000,América Central
,Bolivia,11 832 936,Sudamérica
,Brasil,213 993 441,Sudamérica
,Canadá,38 929 902,América del Norte
,Chile,19 212 362,Sudamérica
,Colombia,51 049 000,Sudamérica
